Ejemplo Completo de Descriptiva y Modelamiento mediante ETS
…
tibble_logpasajeros=tibble(df_logpasajeros)
#duplicates(tibble_logpasajeros, key = NULL, index=Fecha)   ##Mirar si hay registros duplicados
####Primera aproximación del ajuste STL

tibble_logpasajeros%>%timetk::plot_time_series(Fecha, Logpasa, 
                   .interactive = TRUE,
                   .plotly_slider = TRUE)

#####Ajuste STL
#Note que obtenemos un objeto adicional en tibble_logpasajeros con Logpasa_ajus con parámetros que se pueden mover.
tibble_logpasajeros%>%mutate(Logpasa_ajus=smooth_vec(Logpasa,span = 0.75, degree = 2))

# A tibble: 144 × 3
   Fecha      Logpasa Logpasa_ajus
   <date>       <dbl>        <dbl>
 1 1949-01-01    4.72         4.76
 2 1949-02-01    4.77         4.77
 3 1949-03-01    4.88         4.78
 4 1949-04-01    4.86         4.79
 5 1949-05-01    4.80         4.81
 6 1949-06-01    4.91         4.82
 7 1949-07-01    5.00         4.83
 8 1949-08-01    5.00         4.84
 9 1949-09-01    4.91         4.86
10 1949-10-01    4.78         4.87
# … with 134 more rows
# ℹ Use `print(n = ...)` to see more rows
…
